[{
  "id": 1,
  "name": "Caio Rogerio Ribeiro",
  "address": [
    "Rua do Parque, 256",
    "B 152"
  ],
  "city": "São Paulo",
  "state": "SP",
  "zipcode": "04279-080"
},{
  "id": 2,
  "name": "Caio Rogerio Ribeiro",
  "address": [
    "Rua do Parque, 256",
    "A 16"
  ],
  "city": "São Paulo",
  "state": "SP",
  "zipcode": "04279-080"
}]